<svg width="24" height="24" viewBox="0 0 24 24" fill="none" xmlns="http://www.w3.org/2000/svg">
<rect x="4" y="17.25" width="3.80952" height="2.75" fill="#333333"/>
<rect x="10.0952" y="13" width="3.80952" height="7" fill="#333333"/>
<rect x="16.1905" y="6.75" width="3.80952" height="13.25" fill="#333333"/>
<rect x="4" y="14.5" width="3.80952" height="2.75" fill="#BDBDBD"/>
<rect x="10.0952" y="10.25" width="3.80952" height="2.75" fill="#BDBDBD"/>
<rect x="16.1905" y="4" width="3.80952" height="2.75" fill="#BDBDBD"/>
</svg>
