<svg width="24" height="24" viewBox="0 0 24 24" fill="none" xmlns="http://www.w3.org/2000/svg">
<circle cx="12" cy="12" r="8" fill="#333333"/>
<mask id="mask0" mask-type="alpha" maskUnits="userSpaceOnUse" x="4" y="4" width="16" height="16">
<circle cx="12" cy="12" r="8" fill="#333333"/>
</mask>
<g mask="url(#mask0)">
<rect x="12" y="4" width="8" height="8" fill="#BDBDBD"/>
</g>
</svg>
