<svg width="24" height="24" viewBox="0 0 24 24" fill="none" xmlns="http://www.w3.org/2000/svg">
<rect x="6.75" y="4" width="3.80952" height="2.75" transform="rotate(90 6.75 4)" fill="#FF335A"/>
<rect x="11" y="10.0952" width="3.80952" height="7" transform="rotate(90 11 10.0952)" fill="#FF335A"/>
<rect x="17.25" y="16.1905" width="3.80952" height="13.25" transform="rotate(90 17.25 16.1905)" fill="#FF335A"/>
<rect x="9.5" y="4" width="3.80952" height="2.75" transform="rotate(90 9.5 4)" fill="#F3A0BB"/>
<rect x="13.75" y="10.0952" width="3.80952" height="2.75" transform="rotate(90 13.75 10.0952)" fill="#F3A0BB"/>
<rect x="20" y="16.1905" width="3.80952" height="2.75" transform="rotate(90 20 16.1905)" fill="#F3A0BB"/>
</svg>
